%TF.GenerationSoftware,KiCad,Pcbnew,(5.1.10)-1*%
%TF.CreationDate,2021-11-29T17:07:23-06:00*%
%TF.ProjectId,rudolph_ornament,7275646f-6c70-4685-9f6f-726e616d656e,rev?*%
%TF.SameCoordinates,Original*%
%TF.FileFunction,Copper,L1,Top*%
%TF.FilePolarity,Positive*%
%FSLAX46Y46*%
G04 Gerber Fmt 4.6, Leading zero omitted, Abs format (unit mm)*
G04 Created by KiCad (PCBNEW (5.1.10)-1) date 2021-11-29 17:07:24*
%MOMM*%
%LPD*%
G01*
G04 APERTURE LIST*
%TA.AperFunction,ComponentPad*%
%ADD10R,1.800000X1.800000*%
%TD*%
%TA.AperFunction,ComponentPad*%
%ADD11O,1.800000X1.800000*%
%TD*%
%TA.AperFunction,ComponentPad*%
%ADD12C,1.800000*%
%TD*%
%TA.AperFunction,ComponentPad*%
%ADD13R,1.600000X1.600000*%
%TD*%
%TA.AperFunction,ComponentPad*%
%ADD14C,1.600000*%
%TD*%
%TA.AperFunction,ComponentPad*%
%ADD15R,1.508000X1.508000*%
%TD*%
%TA.AperFunction,ComponentPad*%
%ADD16C,1.508000*%
%TD*%
%TA.AperFunction,ComponentPad*%
%ADD17C,2.100000*%
%TD*%
%TA.AperFunction,ComponentPad*%
%ADD18O,1.600000X1.600000*%
%TD*%
%TA.AperFunction,ComponentPad*%
%ADD19R,1.370000X1.370000*%
%TD*%
%TA.AperFunction,ComponentPad*%
%ADD20C,1.370000*%
%TD*%
%TA.AperFunction,ComponentPad*%
%ADD21R,3.500000X3.500000*%
%TD*%
%TA.AperFunction,ViaPad*%
%ADD22C,0.800000*%
%TD*%
%TA.AperFunction,Conductor*%
%ADD23C,0.250000*%
%TD*%
G04 APERTURE END LIST*
D10*
%TO.P,D2,1*%
%TO.N,/5v_switched*%
X149987000Y-139700000D03*
D11*
%TO.P,D2,2*%
%TO.N,Net-(D2-Pad2)*%
X139827000Y-139700000D03*
%TD*%
D10*
%TO.P,D3,1*%
%TO.N,GND*%
X143002000Y-61722000D03*
D12*
%TO.P,D3,2*%
%TO.N,Net-(D3-Pad2)*%
X145542000Y-61722000D03*
%TD*%
D13*
%TO.P,C1,1*%
%TO.N,Net-(C1-Pad1)*%
X156591000Y-125222000D03*
D14*
%TO.P,C1,2*%
%TO.N,GND*%
X159091000Y-125222000D03*
%TD*%
D15*
%TO.P,RV1,1*%
%TO.N,Net-(R1-Pad2)*%
X178752000Y-136264000D03*
D16*
%TO.P,RV1,2*%
%TO.N,Net-(C1-Pad1)*%
X174752000Y-136264000D03*
%TO.P,RV1,3*%
X170752000Y-136264000D03*
D17*
%TO.P,RV1,S1*%
%TO.N,N/C*%
X179752000Y-146264000D03*
%TO.P,RV1,S2*%
X169752000Y-146264000D03*
%TD*%
D12*
%TO.P,D4,2*%
%TO.N,Net-(D4-Pad2)*%
X162052000Y-141859000D03*
D10*
%TO.P,D4,1*%
%TO.N,GND*%
X159512000Y-141859000D03*
%TD*%
%TO.P,D5,1*%
%TO.N,GND*%
X126746000Y-141859000D03*
D12*
%TO.P,D5,2*%
%TO.N,Net-(D5-Pad2)*%
X129286000Y-141859000D03*
%TD*%
D18*
%TO.P,R5,2*%
%TO.N,Net-(D5-Pad2)*%
X122047000Y-130683000D03*
D14*
%TO.P,R5,1*%
%TO.N,/5v_switched*%
X132207000Y-130683000D03*
%TD*%
D18*
%TO.P,R7,2*%
%TO.N,Net-(D7-Pad2)*%
X122174000Y-118237000D03*
D14*
%TO.P,R7,1*%
%TO.N,/5v_switched*%
X132334000Y-118237000D03*
%TD*%
%TO.P,R6,1*%
%TO.N,/5v_switched*%
X139192000Y-109220000D03*
D18*
%TO.P,R6,2*%
%TO.N,Net-(D6-Pad2)*%
X149352000Y-109220000D03*
%TD*%
D13*
%TO.P,U1,1*%
%TO.N,GND*%
X140970000Y-125476000D03*
D18*
%TO.P,U1,5*%
%TO.N,N/C*%
X148590000Y-133096000D03*
%TO.P,U1,2*%
%TO.N,Net-(C1-Pad1)*%
X140970000Y-128016000D03*
%TO.P,U1,6*%
X148590000Y-130556000D03*
%TO.P,U1,3*%
%TO.N,Net-(R3-Pad2)*%
X140970000Y-130556000D03*
%TO.P,U1,7*%
%TO.N,Net-(R1-Pad2)*%
X148590000Y-128016000D03*
%TO.P,U1,4*%
%TO.N,/5v_switched*%
X140970000Y-133096000D03*
%TO.P,U1,8*%
X148590000Y-125476000D03*
%TD*%
%TO.P,R2,2*%
%TO.N,Net-(D3-Pad2)*%
X149352000Y-102870000D03*
D14*
%TO.P,R2,1*%
%TO.N,/5v_switched*%
X139192000Y-102870000D03*
%TD*%
D19*
%TO.P,SW1,1*%
%TO.N,Net-(D2-Pad2)*%
X111633000Y-145288000D03*
D20*
%TO.P,SW1,2*%
%TO.N,Net-(J1-Pad1)*%
X114173000Y-145288000D03*
%TO.P,SW1,3*%
%TO.N,N/C*%
X116713000Y-145288000D03*
%TD*%
D14*
%TO.P,R3,1*%
%TO.N,Net-(D1-Pad2)*%
X137033000Y-119634000D03*
D18*
%TO.P,R3,2*%
%TO.N,Net-(R3-Pad2)*%
X137033000Y-129794000D03*
%TD*%
D14*
%TO.P,R4,1*%
%TO.N,/5v_switched*%
X157226000Y-118110000D03*
D18*
%TO.P,R4,2*%
%TO.N,Net-(D4-Pad2)*%
X167386000Y-118110000D03*
%TD*%
D12*
%TO.P,D1,2*%
%TO.N,Net-(D1-Pad2)*%
X146050000Y-117348000D03*
D10*
%TO.P,D1,1*%
%TO.N,GND*%
X143510000Y-117348000D03*
%TD*%
D12*
%TO.P,D6,2*%
%TO.N,Net-(D6-Pad2)*%
X163195000Y-109855000D03*
D10*
%TO.P,D6,1*%
%TO.N,GND*%
X160655000Y-109855000D03*
%TD*%
%TO.P,D7,1*%
%TO.N,GND*%
X125603000Y-109855000D03*
D12*
%TO.P,D7,2*%
%TO.N,Net-(D7-Pad2)*%
X128143000Y-109855000D03*
%TD*%
D21*
%TO.P,J1,1*%
%TO.N,Net-(J1-Pad1)*%
X145161000Y-144907000D03*
%TO.P,J1,2*%
%TO.N,GND*%
%TA.AperFunction,ComponentPad*%
G36*
G01*
X146161000Y-152407000D02*
X144161000Y-152407000D01*
G75*
G02*
X143411000Y-151657000I0J750000D01*
G01*
X143411000Y-150157000D01*
G75*
G02*
X144161000Y-149407000I750000J0D01*
G01*
X146161000Y-149407000D01*
G75*
G02*
X146911000Y-150157000I0J-750000D01*
G01*
X146911000Y-151657000D01*
G75*
G02*
X146161000Y-152407000I-750000J0D01*
G01*
G37*
%TD.AperFunction*%
%TO.P,J1,3*%
%TO.N,N/C*%
%TA.AperFunction,ComponentPad*%
G36*
G01*
X150736000Y-149657000D02*
X148986000Y-149657000D01*
G75*
G02*
X148111000Y-148782000I0J875000D01*
G01*
X148111000Y-147032000D01*
G75*
G02*
X148986000Y-146157000I875000J0D01*
G01*
X150736000Y-146157000D01*
G75*
G02*
X151611000Y-147032000I0J-875000D01*
G01*
X151611000Y-148782000D01*
G75*
G02*
X150736000Y-149657000I-875000J0D01*
G01*
G37*
%TD.AperFunction*%
%TD*%
D14*
%TO.P,R1,1*%
%TO.N,/5v_switched*%
X153797000Y-132588000D03*
D18*
%TO.P,R1,2*%
%TO.N,Net-(R1-Pad2)*%
X163957000Y-132588000D03*
%TD*%
D22*
%TO.N,Net-(D4-Pad2)*%
X167132000Y-138430000D03*
%TD*%
D23*
%TO.N,Net-(C1-Pad1)*%
X165967998Y-136264000D02*
X170752000Y-136264000D01*
X156591000Y-125222000D02*
X157425998Y-125222000D01*
X140970000Y-128016000D02*
X146050000Y-128016000D01*
X146050000Y-128016000D02*
X148590000Y-130556000D01*
X170752000Y-136264000D02*
X174752000Y-136264000D01*
X156591000Y-125222000D02*
X156591000Y-126887002D01*
X156591000Y-126887002D02*
X165967998Y-136264000D01*
%TO.N,Net-(D1-Pad2)*%
X137033000Y-119634000D02*
X143764000Y-119634000D01*
X143764000Y-119634000D02*
X146050000Y-117348000D01*
%TO.N,Net-(R3-Pad2)*%
X140970000Y-130556000D02*
X137795000Y-130556000D01*
X137795000Y-130556000D02*
X137033000Y-129794000D01*
%TO.N,Net-(D2-Pad2)*%
X112643001Y-144277999D02*
X111633000Y-145288000D01*
X135249001Y-144277999D02*
X112643001Y-144277999D01*
X139827000Y-139700000D02*
X135249001Y-144277999D01*
%TO.N,Net-(J1-Pad1)*%
X115183001Y-146298001D02*
X143769999Y-146298001D01*
X143769999Y-146298001D02*
X145161000Y-144907000D01*
X114173000Y-145288000D02*
X115183001Y-146298001D01*
%TO.N,Net-(R1-Pad2)*%
X163957000Y-132588000D02*
X175076000Y-132588000D01*
X175076000Y-132588000D02*
X178752000Y-136264000D01*
%TO.N,/5v_switched*%
X143383000Y-133096000D02*
X149987000Y-139700000D01*
X153797000Y-130683000D02*
X153797000Y-132588000D01*
X149987000Y-136398000D02*
X153797000Y-132588000D01*
X139192000Y-109220000D02*
X139192000Y-102870000D01*
X148590000Y-125476000D02*
X149860000Y-125476000D01*
X148590000Y-125476000D02*
X153797000Y-130683000D01*
X139192000Y-111379000D02*
X132334000Y-118237000D01*
X134620000Y-133096000D02*
X140970000Y-133096000D01*
X140970000Y-133096000D02*
X143383000Y-133096000D01*
X132207000Y-130683000D02*
X132207000Y-118364000D01*
X149860000Y-125476000D02*
X157226000Y-118110000D01*
X139192000Y-109220000D02*
X139192000Y-111379000D01*
X132207000Y-118364000D02*
X132334000Y-118237000D01*
X149987000Y-139700000D02*
X149987000Y-136398000D01*
X132207000Y-130683000D02*
X134620000Y-133096000D01*
%TO.N,Net-(D3-Pad2)*%
X145542000Y-61722000D02*
X145542000Y-99060000D01*
X145542000Y-99060000D02*
X149352000Y-102870000D01*
%TO.N,Net-(D4-Pad2)*%
X162052000Y-141859000D02*
X163703000Y-141859000D01*
X163703000Y-141859000D02*
X167132000Y-138430000D01*
%TO.N,Net-(D5-Pad2)*%
X122047000Y-134620000D02*
X129286000Y-141859000D01*
X122047000Y-130683000D02*
X122047000Y-134620000D01*
%TO.N,Net-(D6-Pad2)*%
X149352000Y-109220000D02*
X150151999Y-108420001D01*
X150151999Y-108420001D02*
X161760001Y-108420001D01*
X161760001Y-108420001D02*
X163195000Y-109855000D01*
%TO.N,Net-(D7-Pad2)*%
X122174000Y-118237000D02*
X122174000Y-115824000D01*
X122174000Y-115824000D02*
X128143000Y-109855000D01*
%TD*%
M02*
