(export (version D)
  (design
    (source D:\Dropbox\projects\projects\rudolph_ornament\kicad\rudolph_ornament\rudolph_ornament.sch)
    (date "11/28/2021 11:32:43 AM")
    (tool "Eeschema (5.1.10)-1")
    (sheet (number 1) (name /) (tstamps /)
      (title_block
        (title)
        (company)
        (rev)
        (date)
        (source rudolph_ornament.sch)
        (comment (number 1) (value ""))
        (comment (number 2) (value ""))
        (comment (number 3) (value ""))
        (comment (number 4) (value "")))))
  (components
    (comp (ref D1)
      (value RUDOLPH_LED)
      (footprint LED_THT:LED_D5.0mm)
      (datasheet ~)
      (libsource (lib Device) (part LED) (description "Light emitting diode"))
      (sheetpath (names /) (tstamps /))
      (tstamp 6196D7C4))
    (comp (ref R3)
      (value 220)
      (footprint Resistor_THT:R_Axial_DIN0207_L6.3mm_D2.5mm_P10.16mm_Horizontal)
      (datasheet ~)
      (libsource (lib Device) (part R) (description Resistor))
      (sheetpath (names /) (tstamps /))
      (tstamp 6196FBC8))
    (comp (ref R1)
      (value 4.7K)
      (footprint Resistor_THT:R_Axial_DIN0207_L6.3mm_D2.5mm_P10.16mm_Horizontal)
      (datasheet ~)
      (libsource (lib Device) (part R) (description Resistor))
      (sheetpath (names /) (tstamps /))
      (tstamp 61972CE2))
    (comp (ref U1)
      (value NE555D)
      (footprint Package_DIP:DIP-8_W7.62mm)
      (datasheet http://www.ti.com/lit/ds/symlink/ne555.pdf)
      (libsource (lib Timer) (part NE555D) (description "Precision Timers, 555 compatible, SOIC-8"))
      (sheetpath (names /) (tstamps /))
      (tstamp 6196BEA7))
    (comp (ref C1)
      (value 100uF)
      (footprint Capacitor_THT:CP_Radial_D5.0mm_P2.50mm)
      (datasheet ~)
      (libsource (lib Device) (part CP) (description "Polarized capacitor"))
      (sheetpath (names /) (tstamps /))
      (tstamp 6198224A))
    (comp (ref J1)
      (value Barrel_Jack)
      (footprint Connector_BarrelJack:BarrelJack_Horizontal)
      (datasheet ~)
      (libsource (lib Connector) (part Barrel_Jack) (description "DC Barrel Jack"))
      (sheetpath (names /) (tstamps /))
      (tstamp 61983A8A))
    (comp (ref RV1)
      (value 50K)
      (footprint "SnapEDA Library:TRIM_RV100F-30-4K1B-B10K-B301")
      (datasheet ~)
      (libsource (lib Device) (part R_POT) (description Potentiometer))
      (sheetpath (names /) (tstamps /))
      (tstamp 61986B47))
    (comp (ref D2)
      (value 1N4001)
      (footprint Diode_THT:D_A-405_P10.16mm_Horizontal)
      (datasheet ~)
      (libsource (lib Device) (part D) (description Diode))
      (sheetpath (names /) (tstamps /))
      (tstamp 6198AB98))
    (comp (ref SW1)
      (value SW_SPDT)
      (footprint "SnapEDA Library:SW_SS-12E17")
      (datasheet ~)
      (libsource (lib Switch) (part SW_SPDT) (description "Switch, single pole double throw"))
      (sheetpath (names /) (tstamps /))
      (tstamp 6197C7DD))
    (comp (ref D3)
      (value SNOWFLAKE_LED)
      (footprint LED_THT:LED_D5.0mm)
      (datasheet ~)
      (libsource (lib Device) (part LED) (description "Light emitting diode"))
      (sheetpath (names /) (tstamps /))
      (tstamp 6197E4F7))
    (comp (ref R2)
      (value 220)
      (footprint Resistor_THT:R_Axial_DIN0207_L6.3mm_D2.5mm_P10.16mm_Horizontal)
      (datasheet ~)
      (libsource (lib Device) (part R) (description Resistor))
      (sheetpath (names /) (tstamps /))
      (tstamp 6197EBE8))
    (comp (ref D4)
      (value SNOWFLAKE_LED)
      (footprint LED_THT:LED_D5.0mm)
      (datasheet ~)
      (libsource (lib Device) (part LED) (description "Light emitting diode"))
      (sheetpath (names /) (tstamps /))
      (tstamp 61984189))
    (comp (ref R4)
      (value 220)
      (footprint Resistor_THT:R_Axial_DIN0207_L6.3mm_D2.5mm_P10.16mm_Horizontal)
      (datasheet ~)
      (libsource (lib Device) (part R) (description Resistor))
      (sheetpath (names /) (tstamps /))
      (tstamp 6198418F))
    (comp (ref D5)
      (value SNOWFLAKE_LED)
      (footprint LED_THT:LED_D5.0mm)
      (datasheet ~)
      (libsource (lib Device) (part LED) (description "Light emitting diode"))
      (sheetpath (names /) (tstamps /))
      (tstamp 61984BFA))
    (comp (ref R5)
      (value 220)
      (footprint Resistor_THT:R_Axial_DIN0207_L6.3mm_D2.5mm_P10.16mm_Horizontal)
      (datasheet ~)
      (libsource (lib Device) (part R) (description Resistor))
      (sheetpath (names /) (tstamps /))
      (tstamp 61984C00))
    (comp (ref D6)
      (value SNOWFLAKE_LED)
      (footprint LED_THT:LED_D5.0mm)
      (datasheet ~)
      (libsource (lib Device) (part LED) (description "Light emitting diode"))
      (sheetpath (names /) (tstamps /))
      (tstamp 619853E7))
    (comp (ref R6)
      (value 220)
      (footprint Resistor_THT:R_Axial_DIN0207_L6.3mm_D2.5mm_P10.16mm_Horizontal)
      (datasheet ~)
      (libsource (lib Device) (part R) (description Resistor))
      (sheetpath (names /) (tstamps /))
      (tstamp 619853ED))
    (comp (ref D7)
      (value SNOWFLAKE_LED)
      (footprint LED_THT:LED_D5.0mm)
      (datasheet ~)
      (libsource (lib Device) (part LED) (description "Light emitting diode"))
      (sheetpath (names /) (tstamps /))
      (tstamp 61985C68))
    (comp (ref R7)
      (value 220)
      (footprint Resistor_THT:R_Axial_DIN0207_L6.3mm_D2.5mm_P10.16mm_Horizontal)
      (datasheet ~)
      (libsource (lib Device) (part R) (description Resistor))
      (sheetpath (names /) (tstamps /))
      (tstamp 61985C6E)))
  (libparts
    (libpart (lib Connector) (part Barrel_Jack)
      (aliases
        (alias Jack-DC))
      (description "DC Barrel Jack")
      (docs ~)
      (footprints
        (fp BarrelJack*))
      (fields
        (field (name Reference) J)
        (field (name Value) Barrel_Jack))
      (pins
        (pin (num 1) (name ~) (type passive))
        (pin (num 2) (name ~) (type passive))))
    (libpart (lib Device) (part CP)
      (description "Polarized capacitor")
      (docs ~)
      (footprints
        (fp CP_*))
      (fields
        (field (name Reference) C)
        (field (name Value) CP))
      (pins
        (pin (num 1) (name ~) (type passive))
        (pin (num 2) (name ~) (type passive))))
    (libpart (lib Device) (part D)
      (description Diode)
      (docs ~)
      (footprints
        (fp TO-???*)
        (fp *_Diode_*)
        (fp *SingleDiode*)
        (fp D_*))
      (fields
        (field (name Reference) D)
        (field (name Value) D))
      (pins
        (pin (num 1) (name K) (type passive))
        (pin (num 2) (name A) (type passive))))
    (libpart (lib Device) (part LED)
      (description "Light emitting diode")
      (docs ~)
      (footprints
        (fp LED*)
        (fp LED_SMD:*)
        (fp LED_THT:*))
      (fields
        (field (name Reference) D)
        (field (name Value) LED))
      (pins
        (pin (num 1) (name K) (type passive))
        (pin (num 2) (name A) (type passive))))
    (libpart (lib Device) (part R)
      (description Resistor)
      (docs ~)
      (footprints
        (fp R_*))
      (fields
        (field (name Reference) R)
        (field (name Value) R))
      (pins
        (pin (num 1) (name ~) (type passive))
        (pin (num 2) (name ~) (type passive))))
    (libpart (lib Device) (part R_POT)
      (description Potentiometer)
      (docs ~)
      (footprints
        (fp Potentiometer*))
      (fields
        (field (name Reference) RV)
        (field (name Value) R_POT))
      (pins
        (pin (num 1) (name 1) (type passive))
        (pin (num 2) (name 2) (type passive))
        (pin (num 3) (name 3) (type passive))))
    (libpart (lib Switch) (part SW_SPDT)
      (description "Switch, single pole double throw")
      (docs ~)
      (fields
        (field (name Reference) SW)
        (field (name Value) SW_SPDT))
      (pins
        (pin (num 1) (name A) (type passive))
        (pin (num 2) (name B) (type passive))
        (pin (num 3) (name C) (type passive))))
    (libpart (lib Timer) (part NE555D)
      (aliases
        (alias LM555xM)
        (alias ICM7555xB)
        (alias LMC555xM)
        (alias MC1455B)
        (alias TLC555xD)
        (alias NA555D)
        (alias SE555D)
        (alias SA555D))
      (description "Precision Timers, 555 compatible, SOIC-8")
      (docs http://www.ti.com/lit/ds/symlink/ne555.pdf)
      (footprints
        (fp SOIC*3.9x4.9mm*P1.27mm*))
      (fields
        (field (name Reference) U)
        (field (name Value) NE555D)
        (field (name Footprint) Package_SO:SOIC-8_3.9x4.9mm_P1.27mm))
      (pins
        (pin (num 1) (name GND) (type power_in))
        (pin (num 2) (name TR) (type input))
        (pin (num 3) (name Q) (type output))
        (pin (num 4) (name R) (type input))
        (pin (num 5) (name CV) (type input))
        (pin (num 6) (name THR) (type input))
        (pin (num 7) (name DIS) (type input))
        (pin (num 8) (name VCC) (type power_in)))))
  (libraries
    (library (logical Connector)
      (uri "D:\\Program Files\\KiCad\\share\\kicad\\library/Connector.lib"))
    (library (logical Device)
      (uri "D:\\Program Files\\KiCad\\share\\kicad\\library/Device.lib"))
    (library (logical Switch)
      (uri "D:\\Program Files\\KiCad\\share\\kicad\\library/Switch.lib"))
    (library (logical Timer)
      (uri "D:\\Program Files\\KiCad\\share\\kicad\\library/Timer.lib")))
  (nets
    (net (code 1) (name "Net-(D3-Pad2)")
      (node (ref R2) (pin 2))
      (node (ref D3) (pin 2)))
    (net (code 2) (name "Net-(D6-Pad2)")
      (node (ref R6) (pin 2))
      (node (ref D6) (pin 2)))
    (net (code 3) (name "Net-(D5-Pad2)")
      (node (ref R5) (pin 2))
      (node (ref D5) (pin 2)))
    (net (code 4) (name "Net-(D4-Pad2)")
      (node (ref R4) (pin 2))
      (node (ref D4) (pin 2)))
    (net (code 5) (name /5v_switched)
      (node (ref R7) (pin 1))
      (node (ref U1) (pin 8))
      (node (ref U1) (pin 4))
      (node (ref R1) (pin 1))
      (node (ref D2) (pin 1))
      (node (ref R2) (pin 1))
      (node (ref R5) (pin 1))
      (node (ref R6) (pin 1))
      (node (ref R4) (pin 1)))
    (net (code 6) (name GND)
      (node (ref D1) (pin 1))
      (node (ref D5) (pin 1))
      (node (ref D4) (pin 1))
      (node (ref D6) (pin 1))
      (node (ref C1) (pin 2))
      (node (ref D3) (pin 1))
      (node (ref J1) (pin 2))
      (node (ref D7) (pin 1))
      (node (ref U1) (pin 1)))
    (net (code 7) (name "Net-(SW1-Pad3)")
      (node (ref SW1) (pin 3)))
    (net (code 8) (name "Net-(D2-Pad2)")
      (node (ref SW1) (pin 1))
      (node (ref D2) (pin 2)))
    (net (code 9) (name "Net-(J1-Pad1)")
      (node (ref SW1) (pin 2))
      (node (ref J1) (pin 1)))
    (net (code 10) (name "Net-(C1-Pad1)")
      (node (ref C1) (pin 1))
      (node (ref U1) (pin 2))
      (node (ref RV1) (pin 2))
      (node (ref RV1) (pin 3))
      (node (ref U1) (pin 6)))
    (net (code 11) (name "Net-(D7-Pad2)")
      (node (ref R7) (pin 2))
      (node (ref D7) (pin 2)))
    (net (code 12) (name "Net-(R1-Pad2)")
      (node (ref RV1) (pin 1))
      (node (ref R1) (pin 2))
      (node (ref U1) (pin 7)))
    (net (code 13) (name "Net-(D1-Pad2)")
      (node (ref D1) (pin 2))
      (node (ref R3) (pin 1)))
    (net (code 14) (name "Net-(U1-Pad5)")
      (node (ref U1) (pin 5)))
    (net (code 15) (name "Net-(R3-Pad2)")
      (node (ref U1) (pin 3))
      (node (ref R3) (pin 2)))))