EESchema Schematic File Version 4
EELAYER 30 0
EELAYER END
$Descr A4 11693 8268
encoding utf-8
Sheet 1 1
Title ""
Date ""
Rev ""
Comp ""
Comment1 ""
Comment2 ""
Comment3 ""
Comment4 ""
$EndDescr
$Comp
L Device:LED D1
U 1 1 6196D7C4
P 7000 3850
F 0 "D1" V 7039 3732 50  0000 R CNN
F 1 "RUDOLPH_LED" V 6948 3732 50  0000 R CNN
F 2 "LED_THT:LED_D5.0mm" H 7000 3850 50  0001 C CNN
F 3 "~" H 7000 3850 50  0001 C CNN
	1    7000 3850
	0    -1   -1   0   
$EndComp
$Comp
L power:GND #PWR02
U 1 1 6196E666
P 5900 4200
F 0 "#PWR02" H 5900 3950 50  0001 C CNN
F 1 "GND" H 5905 4027 50  0000 C CNN
F 2 "" H 5900 4200 50  0001 C CNN
F 3 "" H 5900 4200 50  0001 C CNN
	1    5900 4200
	1    0    0    -1  
$EndComp
$Comp
L power:GND #PWR01
U 1 1 6196ED55
P 4400 3350
F 0 "#PWR01" H 4400 3100 50  0001 C CNN
F 1 "GND" H 4405 3177 50  0000 C CNN
F 2 "" H 4400 3350 50  0001 C CNN
F 3 "" H 4400 3350 50  0001 C CNN
	1    4400 3350
	1    0    0    -1  
$EndComp
$Comp
L power:GND #PWR03
U 1 1 6196F32F
P 7000 4100
F 0 "#PWR03" H 7000 3850 50  0001 C CNN
F 1 "GND" H 7005 3927 50  0000 C CNN
F 2 "" H 7000 4100 50  0001 C CNN
F 3 "" H 7000 4100 50  0001 C CNN
	1    7000 4100
	1    0    0    -1  
$EndComp
$Comp
L Device:R R3
U 1 1 6196FBC8
P 6850 3600
F 0 "R3" V 6643 3600 50  0000 C CNN
F 1 "220" V 6734 3600 50  0000 C CNN
F 2 "Resistor_THT:R_Axial_DIN0207_L6.3mm_D2.5mm_P10.16mm_Horizontal" V 6780 3600 50  0001 C CNN
F 3 "~" H 6850 3600 50  0001 C CNN
	1    6850 3600
	0    1    1    0   
$EndComp
Wire Wire Line
	7000 4000 7000 4100
$Comp
L Device:R R1
U 1 1 61972CE2
P 6500 3150
F 0 "R1" H 6570 3196 50  0000 L CNN
F 1 "4.7K" H 6570 3105 50  0000 L CNN
F 2 "Resistor_THT:R_Axial_DIN0207_L6.3mm_D2.5mm_P10.16mm_Horizontal" V 6430 3150 50  0001 C CNN
F 3 "~" H 6500 3150 50  0001 C CNN
	1    6500 3150
	1    0    0    -1  
$EndComp
Text Notes 5750 2850 0    50   ~ 0
555 pin 3 can \nsource 200mA
Wire Wire Line
	7000 3600 7000 3700
$Comp
L power:PWR_FLAG #FLG0103
U 1 1 619A40AE
P 4400 3250
F 0 "#FLG0103" H 4400 3325 50  0001 C CNN
F 1 "PWR_FLAG" V 4400 3377 50  0000 L CNN
F 2 "" H 4400 3250 50  0001 C CNN
F 3 "~" H 4400 3250 50  0001 C CNN
	1    4400 3250
	0    1    1    0   
$EndComp
$Comp
L power:PWR_FLAG #FLG0102
U 1 1 619A575D
P 5400 2700
F 0 "#FLG0102" H 5400 2775 50  0001 C CNN
F 1 "PWR_FLAG" H 5400 2873 50  0000 C CNN
F 2 "" H 5400 2700 50  0001 C CNN
F 3 "~" H 5400 2700 50  0001 C CNN
	1    5400 2700
	1    0    0    -1  
$EndComp
Wire Wire Line
	5900 3400 5900 3000
Wire Wire Line
	5400 4000 5300 4000
Wire Wire Line
	5300 4000 5300 3000
Wire Wire Line
	5300 3000 5400 3000
$Comp
L power:GND #PWR04
U 1 1 6197E7D1
P 6500 4850
F 0 "#PWR04" H 6500 4600 50  0001 C CNN
F 1 "GND" H 6505 4677 50  0000 C CNN
F 2 "" H 6500 4850 50  0001 C CNN
F 3 "" H 6500 4850 50  0001 C CNN
	1    6500 4850
	1    0    0    -1  
$EndComp
Wire Wire Line
	5900 3000 6500 3000
Connection ~ 5900 3000
Wire Wire Line
	6500 3300 6500 3800
Wire Wire Line
	6400 3800 6500 3800
Connection ~ 6500 3800
Wire Wire Line
	6500 3800 6500 4050
Wire Wire Line
	6500 4350 6500 4450
Wire Wire Line
	6500 4750 6500 4850
Wire Wire Line
	5400 3600 5150 3600
Wire Wire Line
	5150 3600 5150 4450
Wire Wire Line
	5150 4450 6400 4450
Wire Wire Line
	6400 4000 6400 4450
Connection ~ 6400 4450
Wire Wire Line
	6400 4450 6500 4450
Wire Wire Line
	6400 3600 6700 3600
$Comp
L Timer:NE555D U1
U 1 1 6196BEA7
P 5900 3800
F 0 "U1" H 6000 4250 50  0000 C CNN
F 1 "NE555D" H 6100 4150 50  0000 C CNN
F 2 "Package_DIP:DIP-8_W7.62mm" H 6750 3400 50  0001 C CNN
F 3 "http://www.ti.com/lit/ds/symlink/ne555.pdf" H 6750 3400 50  0001 C CNN
	1    5900 3800
	1    0    0    -1  
$EndComp
NoConn ~ 5400 3800
Text Notes 6850 3250 0    50   ~ 0
Astable mode 555 - continuous \nsquare wave on pin 3
$Comp
L Device:CP C1
U 1 1 6198224A
P 6500 4600
F 0 "C1" H 6618 4646 50  0000 L CNN
F 1 "100uF" H 6618 4555 50  0000 L CNN
F 2 "Capacitor_THT:CP_Radial_D5.0mm_P2.50mm" H 6538 4450 50  0001 C CNN
F 3 "~" H 6500 4600 50  0001 C CNN
	1    6500 4600
	1    0    0    -1  
$EndComp
Connection ~ 6500 4450
Text Notes 7200 3550 0    50   ~ 0
t(on) = 0.69*C1*(R1+R2)\nt(off) = 0.69*C1*R2\n
$Comp
L Connector:Barrel_Jack J1
U 1 1 61983A8A
P 4100 3100
F 0 "J1" H 4157 3425 50  0000 C CNN
F 1 "Barrel_Jack" H 4157 3334 50  0000 C CNN
F 2 "Connector_BarrelJack:BarrelJack_Horizontal" H 4150 3060 50  0001 C CNN
F 3 "~" H 4150 3060 50  0001 C CNN
	1    4100 3100
	1    0    0    -1  
$EndComp
Wire Wire Line
	4400 3200 4400 3250
Connection ~ 4400 3250
Wire Wire Line
	4400 3250 4400 3350
$Comp
L Device:R_POT RV1
U 1 1 61986B47
P 6500 4200
F 0 "RV1" H 6700 4400 50  0000 R CNN
F 1 "50K" H 6700 4300 50  0000 R CNN
F 2 "SnapEDA Library:TRIM_RV100F-30-4K1B-B10K-B301" H 6500 4200 50  0001 C CNN
F 3 "~" H 6500 4200 50  0001 C CNN
	1    6500 4200
	1    0    0    -1  
$EndComp
$Comp
L Device:D D2
U 1 1 6198AB98
P 5050 3000
F 0 "D2" H 5050 2783 50  0000 C CNN
F 1 "1N4001" H 5050 2874 50  0000 C CNN
F 2 "Diode_THT:D_A-405_P10.16mm_Horizontal" H 5050 3000 50  0001 C CNN
F 3 "~" H 5050 3000 50  0001 C CNN
	1    5050 3000
	-1   0    0    1   
$EndComp
Wire Wire Line
	5200 3000 5250 3000
Connection ~ 5300 3000
Wire Wire Line
	4800 3000 4900 3000
Wire Wire Line
	5400 2700 5400 3000
Connection ~ 5400 3000
Wire Wire Line
	5400 3000 5900 3000
$Comp
L Switch:SW_SPDT SW1
U 1 1 6197C7DD
P 4600 3000
F 0 "SW1" H 4600 3285 50  0000 C CNN
F 1 "SW_SPDT" H 4600 3194 50  0000 C CNN
F 2 "SnapEDA Library:SW_SS-12E17" H 4600 3000 50  0001 C CNN
F 3 "~" H 4600 3000 50  0001 C CNN
	1    4600 3000
	1    0    0    -1  
$EndComp
Wire Wire Line
	4800 3000 4800 2900
NoConn ~ 4800 3100
$Comp
L Device:LED D3
U 1 1 6197E4F7
P 3300 4200
F 0 "D3" H 3293 4417 50  0000 C CNN
F 1 "SNOWFLAKE_LED" H 3293 4326 50  0000 C CNN
F 2 "LED_THT:LED_D5.0mm" H 3300 4200 50  0001 C CNN
F 3 "~" H 3300 4200 50  0001 C CNN
	1    3300 4200
	0    -1   -1   0   
$EndComp
$Comp
L Device:R R2
U 1 1 6197EBE8
P 3300 3900
F 0 "R2" V 3093 3900 50  0000 C CNN
F 1 "220" V 3184 3900 50  0000 C CNN
F 2 "Resistor_THT:R_Axial_DIN0207_L6.3mm_D2.5mm_P10.16mm_Horizontal" V 3230 3900 50  0001 C CNN
F 3 "~" H 3300 3900 50  0001 C CNN
	1    3300 3900
	1    0    0    -1  
$EndComp
$Comp
L power:GND #PWR0101
U 1 1 61981380
P 4100 4500
F 0 "#PWR0101" H 4100 4250 50  0001 C CNN
F 1 "GND" H 4105 4327 50  0000 C CNN
F 2 "" H 4100 4500 50  0001 C CNN
F 3 "" H 4100 4500 50  0001 C CNN
	1    4100 4500
	1    0    0    -1  
$EndComp
$Comp
L Device:LED D4
U 1 1 61984189
P 3700 4200
F 0 "D4" H 3693 4417 50  0000 C CNN
F 1 "SNOWFLAKE_LED" H 3693 4326 50  0000 C CNN
F 2 "LED_THT:LED_D5.0mm" H 3700 4200 50  0001 C CNN
F 3 "~" H 3700 4200 50  0001 C CNN
	1    3700 4200
	0    -1   -1   0   
$EndComp
$Comp
L Device:R R4
U 1 1 6198418F
P 3700 3900
F 0 "R4" V 3493 3900 50  0000 C CNN
F 1 "220" V 3584 3900 50  0000 C CNN
F 2 "Resistor_THT:R_Axial_DIN0207_L6.3mm_D2.5mm_P10.16mm_Horizontal" V 3630 3900 50  0001 C CNN
F 3 "~" H 3700 3900 50  0001 C CNN
	1    3700 3900
	1    0    0    -1  
$EndComp
$Comp
L Device:LED D5
U 1 1 61984BFA
P 4100 4200
F 0 "D5" H 4093 4417 50  0000 C CNN
F 1 "SNOWFLAKE_LED" H 4093 4326 50  0000 C CNN
F 2 "LED_THT:LED_D5.0mm" H 4100 4200 50  0001 C CNN
F 3 "~" H 4100 4200 50  0001 C CNN
	1    4100 4200
	0    -1   -1   0   
$EndComp
$Comp
L Device:R R5
U 1 1 61984C00
P 4100 3900
F 0 "R5" V 3893 3900 50  0000 C CNN
F 1 "220" V 3984 3900 50  0000 C CNN
F 2 "Resistor_THT:R_Axial_DIN0207_L6.3mm_D2.5mm_P10.16mm_Horizontal" V 4030 3900 50  0001 C CNN
F 3 "~" H 4100 3900 50  0001 C CNN
	1    4100 3900
	1    0    0    -1  
$EndComp
$Comp
L Device:LED D6
U 1 1 619853E7
P 4450 4200
F 0 "D6" H 4443 4417 50  0000 C CNN
F 1 "SNOWFLAKE_LED" H 4443 4326 50  0000 C CNN
F 2 "LED_THT:LED_D5.0mm" H 4450 4200 50  0001 C CNN
F 3 "~" H 4450 4200 50  0001 C CNN
	1    4450 4200
	0    -1   -1   0   
$EndComp
$Comp
L Device:R R6
U 1 1 619853ED
P 4450 3900
F 0 "R6" V 4243 3900 50  0000 C CNN
F 1 "220" V 4334 3900 50  0000 C CNN
F 2 "Resistor_THT:R_Axial_DIN0207_L6.3mm_D2.5mm_P10.16mm_Horizontal" V 4380 3900 50  0001 C CNN
F 3 "~" H 4450 3900 50  0001 C CNN
	1    4450 3900
	1    0    0    -1  
$EndComp
$Comp
L Device:LED D7
U 1 1 61985C68
P 4850 4200
F 0 "D7" H 4843 4417 50  0000 C CNN
F 1 "SNOWFLAKE_LED" H 4843 4326 50  0000 C CNN
F 2 "LED_THT:LED_D5.0mm" H 4850 4200 50  0001 C CNN
F 3 "~" H 4850 4200 50  0001 C CNN
	1    4850 4200
	0    -1   -1   0   
$EndComp
$Comp
L Device:R R7
U 1 1 61985C6E
P 4850 3900
F 0 "R7" V 4643 3900 50  0000 C CNN
F 1 "220" V 4734 3900 50  0000 C CNN
F 2 "Resistor_THT:R_Axial_DIN0207_L6.3mm_D2.5mm_P10.16mm_Horizontal" V 4780 3900 50  0001 C CNN
F 3 "~" H 4850 3900 50  0001 C CNN
	1    4850 3900
	1    0    0    -1  
$EndComp
Wire Wire Line
	3300 4350 3700 4350
Wire Wire Line
	3700 4350 4100 4350
Connection ~ 3700 4350
Wire Wire Line
	4450 4350 4100 4350
Connection ~ 4100 4350
Wire Wire Line
	4450 4350 4850 4350
Connection ~ 4450 4350
Wire Wire Line
	4100 4500 4100 4350
Wire Wire Line
	3300 3750 3700 3750
Wire Wire Line
	4100 3750 3950 3750
Connection ~ 3700 3750
Wire Wire Line
	4100 3750 4450 3750
Connection ~ 4100 3750
Wire Wire Line
	4450 3750 4850 3750
Connection ~ 4450 3750
Text Label 5250 2700 2    50   ~ 0
5v_switched
Wire Wire Line
	5250 2700 5250 3000
Connection ~ 5250 3000
Wire Wire Line
	5250 3000 5300 3000
Text Label 3950 3600 2    50   ~ 0
5v_switched
Wire Wire Line
	3950 3600 3950 3750
Connection ~ 3950 3750
Wire Wire Line
	3950 3750 3700 3750
Wire Wire Line
	6650 4200 6650 4450
Wire Wire Line
	6650 4450 6500 4450
$EndSCHEMATC
